1,86,G12
86,137,G12CADUTOAGO
137,175,G5
175,224,G2
224,437,G3
437,505,G7
505,537,G6
537,606,G7
606,638,G6
638,672,G7
672,696,G6
696,722,G15
722,779,G1
779,851,G5
851,900,G23
900,1031,G2
1031,1186,G3
1186,1249,G7
1249,1291,G6
1291,1354,G7
1354,1504,G6
1504,1552,G7
1552,1602,G6
1602,1737,G1
1737,1890,G2
1890,2093,G3
2093,2176,G6SPOSTOFILO
2176,2247,G7
2247,2296,G6
2296,2347,G7
2347,2426,G6
2426,2468,G7
2468,2529,G6
2529,2542,G1
2542,2630,G5
2630,2718,G23
2718,2812,G2
2812,3011,G3
3011,3092,G7SPOSTOFILO
3092,3155,G7
3155,3205,G6
3205,3267,G7
3267,3313,G6
3313,3262,G7
3262,3499,G6
3499,3840,b''b
