1,190,G12
190,233,G5
233,279,G8
279,374,G20
374,574,G21
574,665,G7
665,714,G6
714,745,G7
745,778,G6
778,808,G7
808,848,G6
848,896,G7
896,967,G12
967,1007,G5
1007,1070,G8
1070,1116,G23
1116,1152,G8
1152,1220,G20
1220,1434,G21
1434,1532,G7
1532,1572,G6
1572,1608,G7
1608,1701,G6
1701,1742,G7
1742,1774,G6
1774,1801,G15
1801,1843,G1
1843,1925,G5
1925,1985,G23
1985,2022,G8
2022,2108,G20
2108,2384,G21
2384,2509,G7
2509,2582,G6
2582,2616,G7
2616,2643,G6
2643,2673,G7
2673,2701,G6
2701,2949,G15
2949,2986,G1
2986,3043,G5
3043,3069,G23
3069,3107,G8
3107,3218,G20
3218,3428,G21
3428,3512,G7
3512,3550,G6
3550,3637,G7
3637,3675,G6
3675,3742,G7
3742,3970,b''b