1,168,G12CADUTOAGO
168,249,G1
249,295,G5
295,318,G23
318,363,G8
363,421,G20
421,557,G21
557,639,G7
639,685,G6
685,761,G7
761,847,G6
847,874,G1
874,927,G5
927,1013,G23
1013,1071,G8
1071,1133,G20
1133,1353,G21
1353,1449,G7
1449,1521,G6
1521,1597,G7
1597,1656,G6
1656,1706,G15
1706,1767,G12
1767,1818,G5
1818,1909,G8
1909,1985,G20
1985,2210,G21
2210,2259,G7
2259,2301,G6
2301,2371,G7
2371,2397,G12
2397,2460,G5
2460,2509,G8
2509,2557,G20
2557,2778,G21
2778,2836,G7
2836,2886,G6
2886,2935,G15
2935,3216,b''b
