1,389,G1
389,458,G5
458,483,G23
483,517,G2
517,758,G3
758,822,G7
822,869,G6
869,919,G7
919,995,G6
995,1103,G7
1103,1160,G1
1160,1231,G5
1231,1298,G23
1298,1407,G2
1407,1696,G3
1696,1744,G7
1744,1780,G6
1780,1818,G7
1818,1849,G6
1849,1886,G7
1886,1925,G6
1925,1988,G7
1988,2012,G6
2012,2068,G7
2068,2106,G12
2106,2143,G5
2143,2214,G8
2214,2246,G23
2246,2303,G2
2303,2458,G3
2458,2506,G7
2506,2547,G6
2547,2641,G7
2641,2703,G6
2703,2745,G7
2745,2801,G6
2801,2862,G7
2862,2900,G12
2900,2964,G5
2964,3078,G2
3078,3310,G3
3310,3373,G7
3373,3412,G6CADUTOFILO
3412,3460,G1
3460,3532,G7
3532,3590,G6
3590,3650,G7
3650,3721,G6
3721,4234,b''b
