1,299,G12
299,399,G5
399,472,G8
472,508,G23
508,642,G8
642,703,G23
703,764,G2
764,980,G3
980,1061,G7
1061,1174,G6
1174,1242,G7
1242,1398,G6
1398,1432,G7
1432,1477,G1
1477,1576,G5
1576,1623,G23
1623,1682,G2
1682,1930,G3
1930,1991,G7
1991,2022,G15
2022,2125,G6
2125,2196,G7
2196,2282,G6
2282,2329,G7
2329,2389,G6
2389,2426,G1
2426,2485,G5
2485,2529,G23
2529,2565,G8
2565,2611,G23
2611,2666,G2
2666,2871,G3
2871,2926,G7
2926,2974,G6
2974,3019,G7
3019,3189,G6
3189,3205,G1
3205,3265,G5
3265,3315,G23
3315,3367,G2
3367,3559,G3
3559,3606,G7
3606,3654,G6
3654,3692,G7
3692,3706,G6
3706,3878,b''b
