1,69,G12
69,114,G5
114,261,G2
261,515,G3
515,582,G7
582,645,G6
645,702,G7
702,765,G6
765,864,G7
864,950,G6
950,1067,G7
1067,1192,G15
1192,1227,G12
1227,1290,G5
1290,1357,G2
1357,1569,G3
1569,1642,G7
1642,1791,G6
1791,1850,G7
1850,1928,G6
1928,2010,G7SPOSTOFILO
2010,2050,G6
2050,2107,G7
2107,2225,G6
2225,2280,G7SPOSTOFILO
2280,2333,G6
2333,2396,G7
2396,2479,G12
2479,2538,G5
2538,2584,G8
2584,2617,G23
2617,2665,G2
2665,2858,G3
2858,2913,G7
2913,2967,G6
2967,3008,G7
3008,3043,G6
3043,3078,G7
3078,3145,G6
3145,3208,G12
3208,3253,G5
3253,3289,G8
3289,3377,G23
3377,3441,G2
3441,3623,G3
3623,3673,G7
3673,3713,G6
3713,3747,G7
3747,3783,G6
3783,3809,G7
3809,4030,b''b
